%YAML 1.1
%TAG !u! tag:unity3d.com,2011:
--- !u!114 &11400000
MonoBehaviour:
  m_ObjectHideFlags: 0
  m_CorrespondingSourceObject: {fileID: 0}
  m_PrefabInstance: {fileID: 0}
  m_PrefabAsset: {fileID: 0}
  m_GameObject: {fileID: 0}
  m_Enabled: 1
  m_EditorHideFlags: 0
  m_Script: {fileID: 11500000, guid: e90911e410742a1498a167540c7865bf, type: 3}
  m_Name: ARX160Grip
  m_EditorClassIdentifier: 
  leftHand:
    inputSource: 1
    thumbFingerMovementType: 0
    indexFingerMovementType: 0
    middleFingerMovementType: 0
    ringFingerMovementType: 0
    pinkyFingerMovementType: 0
    ignoreRootPoseData: 1
    ignoreWristPoseData: 1
    position: {x: -0.000000007450579, y: 0.017677667, z: -0.06717512}
    rotation: {x: 0.27059805, y: 0.6532815, z: 0.27059805, w: 0.6532815}
    bonePositions:
    - {x: -0, y: 0, z: 0}
    - {x: -0.034037687, y: 0.03650266, z: 0.16472164}
    - {x: -0.012076948, y: 0.028069096, z: 0.025040757}
    - {x: 0.040406764, y: 0.000008272007, z: 0.000014895573}
    - {x: 0.03251378, y: -0.00000253506, z: -0.0000032675453}
    - {x: 0.030463902, y: 0.00000016269207, z: 0.0000000792839}
    - {x: 0.0006355019, y: 0.026865525, z: 0.015008191}
    - {x: 0.074205495, y: 0.0049793106, z: -0.00023695827}
    - {x: 0.043929894, y: -0.000010255841, z: 0.00000018038554}
    - {x: 0.028694067, y: -0.000013867626, z: 0.0000012733508}
    - {x: 0.022821384, y: -0.00000014365155, z: 0.00000007651614}
    - {x: 0.0021633506, y: 0.00712219, z: 0.016326185}
    - {x: 0.07093815, y: -0.00079379417, z: -0.0009931996}
    - {x: 0.04310321, y: -0.000005958602, z: -0.00000037811697}
    - {x: 0.033262, y: 0.0000019520521, z: 0.00000027543865}
    - {x: 0.025892371, y: 0.00000009984198, z: -0.0000000020352908}
    - {x: 0.00050068577, y: -0.006542681, z: 0.016354661}
    - {x: 0.0658666, y: -0.0017870557, z: -0.00069464}
    - {x: 0.04069998, y: -0.000016253442, z: -0.0000071085524}
    - {x: 0.028740743, y: 0.000009652227, z: 0.0000030542578}
    - {x: 0.022430236, y: 0.00000010846127, z: -0.000000017428562}
    - {x: -0.002471032, y: -0.018982762, z: 0.0152244605}
    - {x: 0.06289333, y: -0.002852112, z: -0.0003304109}
    - {x: 0.030216385, y: -0.0000071702525, z: -0.000004650792}
    - {x: 0.01819246, y: -0.0000063218176, z: -0.000006995695}
    - {x: 0.01801794, y: -0.0000000200012, z: 0.0000000659746}
    - {x: -0.0060591106, y: 0.05628522, z: 0.060063843}
    - {x: -0.04041555, y: -0.043017667, z: 0.019344581}
    - {x: -0.03935372, y: -0.07567404, z: 0.047048334}
    - {x: -0.038340144, y: -0.09098663, z: 0.08257892}
    - {x: -0.031805996, y: -0.08721431, z: 0.12101539}
    boneRotations:
    - {x: -6.123234e-17, y: 1, z: 6.123234e-17, w: -0.00000004371139}
    - {x: -0.078608155, y: -0.92027926, z: 0.3792963, w: -0.055146642}
    - {x: -0.36238977, y: -0.77477986, z: 0.35879833, w: 0.37370262}
    - {x: 0.08157543, y: 0.02455034, z: -0.54443765, w: 0.83446413}
    - {x: 0.27677962, y: 0.048566945, z: -0.17917733, w: 0.9428308}
    - {x: -1.3877788e-17, y: -1.3877788e-17, z: -5.551115e-17, w: 1}
    - {x: -0.63342744, y: -0.412618, z: -0.49245042, w: 0.43128726}
    - {x: 0.003728835, y: 0.03957096, z: -0.17042021, w: 0.9845696}
    - {x: 0.045505036, y: 0.005682389, z: -0.12449866, w: 0.9911595}
    - {x: -0.0084327655, y: 0.02124498, z: -0.43078154, w: 0.9021668}
    - {x: 6.938894e-18, y: 1.9428903e-16, z: -1.348151e-33, w: 1}
    - {x: -0.5408666, y: -0.46548438, z: -0.43753636, w: 0.5471285}
    - {x: -0.21102051, y: 0.043104105, z: -0.57761633, w: 0.7873829}
    - {x: 0.022633277, y: -0.0019347109, z: -0.5598006, w: 0.828316}
    - {x: -0.057206877, y: 0.043024253, z: -0.4594679, w: 0.88530535}
    - {x: 1.1639192e-17, y: -5.602331e-17, z: -0.040125635, w: 0.9991947}
    - {x: -0.5647666, y: -0.36851728, z: -0.6044842, w: 0.4240667}
    - {x: -0.06589377, y: 0.11846889, z: -0.5123011, w: 0.8480394}
    - {x: 0.01214697, y: -0.015474448, z: -0.711045, w: 0.7028713}
    - {x: -0.002974508, y: 0.012360176, z: -0.21804851, w: 0.9758552}
    - {x: 6.938894e-18, y: -9.62965e-35, z: -1.3877788e-17, w: 1}
    - {x: -0.48361605, y: -0.3684907, z: -0.70558226, w: 0.36398342}
    - {x: -0.09765026, y: 0.085320376, z: -0.46117193, w: 0.8777844}
    - {x: 0.00133842, y: 0.0013493407, z: -0.73585, w: 0.677142}
    - {x: -0.016696006, y: 0.04937113, z: -0.21191339, w: 0.9758978}
    - {x: 0, y: 0, z: 1.9081958e-17, w: 1}
    - {x: 0.20274544, y: 0.59426665, z: 0.2494411, w: 0.73723847}
    - {x: 0.6235274, y: -0.66380864, z: -0.29373443, w: -0.29033053}
    - {x: 0.6780625, y: -0.6592852, z: -0.26568344, w: -0.18704711}
    - {x: 0.7367927, y: -0.6347571, z: -0.14393571, w: -0.18303718}
    - {x: 0.7584072, y: -0.6393418, z: -0.12667806, w: -0.0036594148}
  rightHand:
    inputSource: 2
    thumbFingerMovementType: 0
    indexFingerMovementType: 0
    middleFingerMovementType: 0
    ringFingerMovementType: 0
    pinkyFingerMovementType: 0
    ignoreRootPoseData: 1
    ignoreWristPoseData: 1
    position: {x: -0.000000007450579, y: 0.017677667, z: -0.06717512}
    rotation: {x: 0.27059805, y: 0.6532815, z: 0.27059805, w: 0.6532815}
    bonePositions:
    - {x: -0, y: 0, z: 0}
    - {x: -0.034037687, y: 0.03650266, z: 0.16472164}
    - {x: -0.012076948, y: 0.028069096, z: 0.025040757}
    - {x: 0.040406764, y: 0.000008272007, z: 0.000014895573}
    - {x: 0.03251378, y: -0.00000253506, z: -0.0000032675453}
    - {x: 0.030463902, y: 0.00000016269207, z: 0.0000000792839}
    - {x: 0.0006355019, y: 0.026865525, z: 0.015008191}
    - {x: 0.074205495, y: 0.0049793106, z: -0.00023695827}
    - {x: 0.043929894, y: -0.000010255841, z: 0.00000018038554}
    - {x: 0.028694067, y: -0.000013867626, z: 0.0000012733508}
    - {x: 0.022821384, y: -0.00000014365155, z: 0.00000007651614}
    - {x: 0.0021633506, y: 0.00712219, z: 0.016326185}
    - {x: 0.07093815, y: -0.00079379417, z: -0.0009931996}
    - {x: 0.04310321, y: -0.000005958602, z: -0.00000037811697}
    - {x: 0.033262, y: 0.0000019520521, z: 0.00000027543865}
    - {x: 0.025892371, y: 0.00000009984198, z: -0.0000000020352908}
    - {x: 0.00050068577, y: -0.006542681, z: 0.016354661}
    - {x: 0.0658666, y: -0.0017870557, z: -0.00069464}
    - {x: 0.04069998, y: -0.000016253442, z: -0.0000071085524}
    - {x: 0.028740743, y: 0.000009652227, z: 0.0000030542578}
    - {x: 0.022430236, y: 0.00000010846127, z: -0.000000017428562}
    - {x: -0.002471032, y: -0.018982762, z: 0.0152244605}
    - {x: 0.06289333, y: -0.002852112, z: -0.0003304109}
    - {x: 0.030216385, y: -0.0000071702525, z: -0.000004650792}
    - {x: 0.01819246, y: -0.0000063218176, z: -0.000006995695}
    - {x: 0.01801794, y: -0.0000000200012, z: 0.0000000659746}
    - {x: -0.0060591106, y: 0.05628522, z: 0.060063843}
    - {x: -0.04041555, y: -0.043017667, z: 0.019344581}
    - {x: -0.03935372, y: -0.07567404, z: 0.047048334}
    - {x: -0.038340144, y: -0.09098663, z: 0.08257892}
    - {x: -0.031805996, y: -0.08721431, z: 0.12101539}
    boneRotations:
    - {x: -6.123234e-17, y: 1, z: 6.123234e-17, w: -0.00000004371139}
    - {x: -0.078608155, y: -0.92027926, z: 0.3792963, w: -0.055146642}
    - {x: -0.36238977, y: -0.77477986, z: 0.35879833, w: 0.37370262}
    - {x: 0.08157543, y: 0.02455034, z: -0.54443765, w: 0.83446413}
    - {x: 0.27677962, y: 0.048566945, z: -0.17917733, w: 0.9428308}
    - {x: -1.3877788e-17, y: -1.3877788e-17, z: -5.551115e-17, w: 1}
    - {x: -0.63342744, y: -0.412618, z: -0.49245042, w: 0.43128726}
    - {x: 0.003728835, y: 0.03957096, z: -0.17042021, w: 0.9845696}
    - {x: 0.045505036, y: 0.005682389, z: -0.12449866, w: 0.9911595}
    - {x: -0.0084327655, y: 0.02124498, z: -0.43078154, w: 0.9021668}
    - {x: 6.938894e-18, y: 1.9428903e-16, z: -1.348151e-33, w: 1}
    - {x: -0.5408666, y: -0.46548438, z: -0.43753636, w: 0.5471285}
    - {x: -0.21102051, y: 0.043104105, z: -0.57761633, w: 0.7873829}
    - {x: 0.022633277, y: -0.0019347109, z: -0.5598006, w: 0.828316}
    - {x: -0.057206877, y: 0.043024253, z: -0.4594679, w: 0.88530535}
    - {x: 1.1639192e-17, y: -5.602331e-17, z: -0.040125635, w: 0.9991947}
    - {x: -0.5647666, y: -0.36851728, z: -0.6044842, w: 0.4240667}
    - {x: -0.06589377, y: 0.11846889, z: -0.5123011, w: 0.8480394}
    - {x: 0.01214697, y: -0.015474448, z: -0.711045, w: 0.7028713}
    - {x: -0.002974508, y: 0.012360176, z: -0.21804851, w: 0.9758552}
    - {x: 6.938894e-18, y: -9.62965e-35, z: -1.3877788e-17, w: 1}
    - {x: -0.48361605, y: -0.3684907, z: -0.70558226, w: 0.36398342}
    - {x: -0.09765026, y: 0.085320376, z: -0.46117193, w: 0.8777844}
    - {x: 0.00133842, y: 0.0013493407, z: -0.73585, w: 0.677142}
    - {x: -0.016696006, y: 0.04937113, z: -0.21191339, w: 0.9758978}
    - {x: 0, y: 0, z: 1.9081958e-17, w: 1}
    - {x: 0.20274544, y: 0.59426665, z: 0.2494411, w: 0.73723847}
    - {x: 0.6235274, y: -0.66380864, z: -0.29373443, w: -0.29033053}
    - {x: 0.6780625, y: -0.6592852, z: -0.26568344, w: -0.18704711}
    - {x: 0.7367927, y: -0.6347571, z: -0.14393571, w: -0.18303718}
    - {x: 0.7584072, y: -0.6393418, z: -0.12667806, w: -0.0036594148}
  applyToSkeletonRoot: 1
